[
  {
    "type": "tab",
    "id": "ba46eab2.c415b8",
    "label": "Flow 1"
  },
  {
    "id": "d14d1ad4.9869b8",
    "type": "http in",
    "z": "ba46eab2.c415b8",
    "name": "Home",
    "url": "/home",
    "method": "get",
    "swaggerDoc": "",
    "x": 103.5,
    "y": 116,
    "wires": [
      [
        "7f26cc39.7c1df4"
      ]
    ]
  },
  {
    "id": "7f26cc39.7c1df4",
    "type": "template",
    "z": "ba46eab2.c415b8",
    "name": "",
    "field": "payload",
    "fieldType": "msg",
    "format": "handlebars",
    "syntax": "mustache",
    "template": "Hello World dsfsf\n\nThis is the payload: {{payload}} !",
    "x": 263.5,
    "y": 206,
    "wires": [
      [
        "47b0054a.12c14c"
      ]
    ]
  },
  {
    "id": "47b0054a.12c14c",
    "type": "http response",
    "z": "ba46eab2.c415b8",
    "name": "",
    "x": 450.5,
    "y": 178,
    "wires": []
  }
]